{"response":{"status":"ok","userTier":"developer","total":7976,"startIndex":1,"pageSize":5,"currentPage":1,"pages":1596,"orderBy":"newest","results":[{"id":"food/2021/jun/05/how-to-use-up-wilted-or-bolted-lettuce-recipe-zero-waste-tom-hunt","type":"article","sectionId":"food","sectionName":"Food","webPublicationDate":"2021-06-05T05:00:01Z","webTitle":"How to use up wilted or bolted lettuce – recipe | Waste not…","webUrl":"https://www.theguardian.com/food/2021/jun/05/how-to-use-up-wilted-or-bolted-lettuce-recipe-zero-waste-tom-hunt","apiUrl":"https://content.guardianapis.com/food/2021/jun/05/how-to-use-up-wilted-or-bolted-lettuce-recipe-zero-waste-tom-hunt","fields":{"headline":"How to use up wilted or bolted lettuce – a recipe for cheesy gratin","thumbnail":"https://media.guim.co.uk/e8132a7db3d2df6f49b15012412e4e068e8b1e1f/0_80_2048_1229/500.jpg"},"isHosted":false,"pillarId":"pillar/lifestyle","pillarName":"Lifestyle"},{"id":"food/2021/jun/02/how-to-make-fruit-fool-recipe-felicity-cloake-masterclass","type":"article","sectionId":"food","sectionName":"Food","webPublicationDate":"2021-06-02T11:00:39Z","webTitle":"How to make fruit fool – recipe | Felicity Cloake's masterclass","webUrl":"https://www.theguardian.com/food/2021/jun/02/how-to-make-fruit-fool-recipe-felicity-cloake-masterclass","apiUrl":"https://content.guardianapis.com/food/2021/jun/02/how-to-make-fruit-fool-recipe-felicity-cloake-masterclass","fields":{"headline":"How to make fruit fool – a recipe to make with children","thumbnail":"https://media.guim.co.uk/99a99591bf8a09c28d88a36fe2ca1ec9c69826a5/907_1371_9060_5438/500.jpg"},"isHosted":false,"pillarId":"pillar/lifestyle","pillarName":"Lifestyle"},{"id":"food/2021/may/31/thomasina-miers-recipe-ylayuda-pea-hummus-mexican-style-pizza","type":"article","sectionId":"food","sectionName":"Food","webPublicationDate":"2021-05-31T12:00:22Z","webTitle":"Thomasina Miers’ recipe for Mexican-style pizza with pea hummus | The simple fix","webUrl":"https://www.theguardian.com/food/2021/may/31/thomasina-miers-recipe-ylayuda-pea-hummus-mexican-style-pizza","apiUrl":"https://content.guardianapis.com/food/2021/may/31/thomasina-miers-recipe-ylayuda-pea-hummus-mexican-style-pizza","fields":{"headline":"Thomasina Miers’ recipe for Mexican-style pizza with pea hummus","thumbnail":"https://media.guim.co.uk/1a55cd34d92c365ad189c1e23090f3979f24ec43/0_1648_5792_3475/500.jpg"},"isHosted":false,"pillarId":"pillar/lifestyle","pillarName":"Lifestyle"},{"id":"food/2021/may/29/vanilla-jam-sponge-potato-cheese-flatbread-ravneet-gill-recipes","type":"article","sectionId":"food","sectionName":"Food","webPublicationDate":"2021-05-29T12:00:24Z","webTitle":"Jam sponge and cheesy flatbread: Ravneet Gill’s recipes for young bakers","webUrl":"https://www.theguardian.com/food/2021/may/29/vanilla-jam-sponge-potato-cheese-flatbread-ravneet-gill-recipes","apiUrl":"https://content.guardianapis.com/food/2021/may/29/vanilla-jam-sponge-potato-cheese-flatbread-ravneet-gill-recipes","fields":{"headline":"Jam sponge and cheesy flatbread: Ravneet Gill’s recipes for young bakers","thumbnail":"https://media.guim.co.uk/23edadbaec357e2b07d1412a81ea8072c889e057/0_1293_3761_2257/500.jpg"},"isHosted":false,"pillarId":"pillar/lifestyle","pillarName":"Lifestyle"},{"id":"food/2021/may/29/liam-charles-recipe-for-breakfast-berry-smoothie-popsicles","type":"article","sectionId":"food","sectionName":"Food","webPublicationDate":"2021-05-29T10:30:22Z","webTitle":"Liam Charles recipe for breakfast berry smoothie popsicles | The sweet spot","webUrl":"https://www.theguardian.com/food/2021/may/29/liam-charles-recipe-for-breakfast-berry-smoothie-popsicles","apiUrl":"https://content.guardianapis.com/food/2021/may/29/liam-charles-recipe-for-breakfast-berry-smoothie-popsicles","fields":{"headline":"Liam Charles recipe for breakfast berry smoothie popsicles","thumbnail":"https://media.guim.co.uk/98726ae8b8eb8de415ab3080931c1b5eb879ffc2/0_1123_3269_1961/500.jpg"},"isHosted":false,"pillarId":"pillar/lifestyle","pillarName":"Lifestyle"}]}}